<define-tag pagetitle>DLA-973-1 strongswan</define-tag>
<define-tag report_date>2017-6-1</define-tag>
<define-tag secrefs>CVE-2017-9022 CVE-2017-9023</define-tag>
<define-tag packages>strongswan</define-tag>
<define-tag isvulnerable>yes</define-tag>
<define-tag fixed>yes</define-tag>
<define-tag fixed-section>no</define-tag>

#use wml::debian::security

