<define-tag pagetitle>DLA-1456-1 graphicsmagick</define-tag>
<define-tag report_date>2018-8-3</define-tag>
<define-tag secrefs>CVE-2016-5239 CVE-2017-6335 CVE-2017-9098 CVE-2017-11102 CVE-2017-11140 CVE-2017-11403 CVE-2017-11637 CVE-2017-1163 CVE-2017-11641 CVE-2017-11642 CVE-2017-12935 CVE-2017-1293 CVE-2017-13737 CVE-2017-13775 CVE-2017-13776 CVE-2017-1377 CVE-2017-14504 CVE-2017-14994 CVE-2017-14997 CVE-2017-1527 CVE-2017-15930 CVE-2017-16352 CVE-2017-16545 CVE-2017-1654 CVE-2017-18219 CVE-2017-18220 CVE-2017-18229 CVE-2017-1823 CVE-2017-18231 CVE-2018-5685 CVE-2018-6799 CVE-2018-9018 Bug#867746 Bug#870153 Bug#870154 Bug#870156 Bug#870155 Bug#872576 Bug#872575 Bug#878511</define-tag>
<define-tag packages>graphicsmagick</define-tag>
<define-tag isvulnerable>yes</define-tag>
<define-tag fixed>yes</define-tag>
<define-tag fixed-section>no</define-tag>

#use wml::debian::security

