<define-tag pagetitle>DLA-1398-1 php-horde-crypt</define-tag>
<define-tag report_date>2018-6-27</define-tag>
<define-tag secrefs>CVE-2017-7413 CVE-2017-7414 Bug#859635</define-tag>
<define-tag packages>php-horde-crypt</define-tag>
<define-tag isvulnerable>yes</define-tag>
<define-tag fixed>yes</define-tag>
<define-tag fixed-section>no</define-tag>

#use wml::debian::security

