<define-tag pagetitle>DLA-2018-1 proftpd-dfsg</define-tag>
<define-tag report_date>2019-11-30</define-tag>
<define-tag secrefs>CVE-2019-19269</define-tag>
<define-tag packages>proftpd-dfsg</define-tag>
<define-tag isvulnerable>yes</define-tag>
<define-tag fixed>yes</define-tag>
<define-tag fixed-section>no</define-tag>

#use wml::debian::security

