<define-tag pagetitle>DLA-2022-1 librabbitmq</define-tag>
<define-tag report_date>2019-12-06</define-tag>
<define-tag secrefs>CVE-2019-18609</define-tag>
<define-tag packages>librabbitmq</define-tag>
<define-tag isvulnerable>yes</define-tag>
<define-tag fixed>yes</define-tag>
<define-tag fixed-section>no</define-tag>

#use wml::debian::security
