<define-tag pagetitle>DLA-600-1 libgcrypt11</define-tag>
<define-tag report_date>2016-8-23</define-tag>
<define-tag secrefs>CVE-2016-6313</define-tag>
<define-tag packages>libgcrypt11</define-tag>
<define-tag isvulnerable>yes</define-tag>
<define-tag fixed>yes</define-tag>
<define-tag fixed-section>no</define-tag>

#use wml::debian::security

