<define-tag pagetitle>DLA-507-1 nss</define-tag>
<define-tag report_date>2016-6-7</define-tag>
<define-tag secrefs>CVE-2015-4000 Bug#N/A</define-tag>
<define-tag packages>nss</define-tag>
<define-tag isvulnerable>yes</define-tag>
<define-tag fixed>yes</define-tag>
<define-tag fixed-section>no</define-tag>

#use wml::debian::security

