<define-tag pagetitle>DLA-737-1 roundcube</define-tag>
<define-tag report_date>2016-12-8</define-tag>
<define-tag secrefs>Bug#847287</define-tag>
<define-tag packages>roundcube</define-tag>
<define-tag isvulnerable>yes</define-tag>
<define-tag fixed>yes</define-tag>
<define-tag fixed-section>no</define-tag>

#use wml::debian::security

